{
  "дом": [
    {
      "video": "https://www.youtube.com/watch?v=059IdI12i2M&ab_channel=SKYHOME%D0%A1%D1%82%D1%80%D0%BE%D0%B8%D1%82%D0%B5%D0%BB%D1%8C%D1%81%D1%82%D0%B2%D0%BE%D0%B4%D0%BE%D0%BC%D0%BE%D0%B2",
      "srt": [
        {"text": "загородного дома последние", "start": 7.02, "duration": 4.35}, {"text": "деревянных и каркасных домов в этом", "start": 16.89, "duration": 3.54},
        {"text": "частном домостроении ct снаба ней больше", "start": 158.91, "duration": 4.109}, {"text": "достаточно теплой загородный домик", "start": 174.36, "duration": 4.349},
        {"text": "каркасного дома потому что заложены", "start": 247.079, "duration": 3.901}, {"text": "утепление вашего дома вот эта вся пыль", "start": 376.5, "duration": 4.26},
        {"text": "пылесосов после того как вот вам дом", "start": 397.479, "duration": 4.291}, {"text": "влиять не домик который исключительно", "start": 466.33, "duration": 3.089},
        {"text": "если допустим вас дорога рядом проходит", "start": 667.67, "duration": 3.0}, {"text": "преимущества используются в домах", "start": 902.949, "duration": 4.171},
        {"text": "стену спокойно проникает допустим дома", "start": 953.96, "duration": 3.93}, {"text": "допустим дома закрыты не проветривается", "start": 962.12, "duration": 4.26},
        {"text": "построенный дом из sip-панелей которые", "start": 983.84, "duration": 4.77}, {"text": "применять его в каркасном доме довольно", "start": 1026.14, "duration": 4.949},
        {"text": "утепление дома", "start": 1053.77, "duration": 3.25}, {"text": "утепления домов во первых очень дорого", "start": 1239.73, "duration": 4.35},
        {"text": "особенно снаружи деревянных домов на", "start": 1248.67, "duration": 4.56}, {"text": "сопоставимы со стоимостью каменного дома", "start": 1254.85, "duration": 3.93},
        {"text": "вскрывал такие дома не видел спустя нам", "start": 1335.82, "duration": 3.51}, {"text": "утепления и вообще строительство домов", "start": 1416.48, "duration": 3.399},
        {"text": "необходимости если вы утепляете свой дом", "start": 1434.19, "duration": 4.14}, {"text": "больше с каждым годом набирает", "start": 1443.61, "duration": 3.199},
        {"text": "улучшает общую и теплоизоляцию дома и", "start": 1469.7, "duration": 5.52}, {"text": "зарядом жгут траву то лучше чтобы у вас", "start": 1524.749, "duration": 5.01},
        {"text": "тонкими утеплителями утеплять дома", "start": 1651.11, "duration": 4.68}, {"text": "области вижу как дома утепляют снаружи", "start": 1655.79, "duration": 4.98},
        {"text": "все это прямо приговор дома ему там если", "start": 1660.77, "duration": 4.05}, {"text": "постоянно пользуюсь то скорее всего дом", "start": 1664.82, "duration": 4.14},
        {"text": "дом вообще ни в коем случае нельзя а", "start": 1673.28, "duration": 5.55}, {"text": "категорически нельзя да и брусовый дом", "start": 1711.269, "duration": 3.181},
        {"text": "тоже был свой дом него хорошая", "start": 1712.889, "duration": 3.811}, {"text": "из дома и все по стоимости он примерно в", "start": 1721.409, "duration": 4.58},
        {"text": "она для утепления домов а все формальные", "start": 1771.629, "duration": 5.12}, {"text": "сопротивления для каркасных домов для", "start": 1790.2, "duration": 4.169},
        {"text": "допустим если у вас там стандартный дом", "start": 1803.909, "duration": 3.721}, {"text": "прямо абсолютной герметичностью дома но", "start": 1825.87, "duration": 4.32},
        {"text": "загородных домах потому что он пар", "start": 1833.6, "duration": 4.66}, {"text": "дом было бы интересно почитать вот такие", "start": 1863.76, "duration": 4.83}
      ]
    },
    {
      "video": "https://www.youtube.com/watch?v=Wqm1tmqv52s&t=253s&ab_channel=SKYHOME%D0%A1%D1%82%D1%80%D0%BE%D0%B8%D1%82%D0%B5%D0%BB%D1%8C%D1%81%D1%82%D0%B2%D0%BE%D0%B4%D0%BE%D0%BC%D0%BE%D0%B2", "srt": [{"text": "как обогреть свой дом у нас есть", "start": 0.0, "duration": 4.5}, {"text": "дом второй способ это не ставить", "start": 100.979, "duration": 5.161}, {"text": "электрокотел не тащить кучу труб по дому", "start": 103.799, "duration": 4.621}, {"text": "обогреватель который с проводом с вилкой", "start": 109.68, "duration": 4.14}, {"text": "дом много помещений то вам нужно", "start": 170.099, "duration": 4.681}, {"text": "каналы которые разведены по дому и таким", "start": 191.819, "duration": 4.741}, {"text": "прогреть дом но когда минус 25 в минус", "start": 223.26, "duration": 6.18}, {"text": "Прямо в доме смонтировать Далеко не", "start": 259.26, "duration": 3.96}, {"text": "признаемся в доме чтобы полы каждый день", "start": 402.419, "duration": 4.921}, {"text": "не превращали свой дом просто в ско", "start": 407.34, "duration": 4.859}, {"text": "там на дом 100 квадратных метров на один", "start": 472.259, "duration": 3.601}, {"text": "идея У нас есть дом нам надо обогреть Мы", "start": 580.32, "duration": 5.639}, {"text": "достаточно теплый дом тепло Просто стоит", "start": 592.56, "duration": 6.3}, {"text": "образом отопить дом допустим 100", "start": 609.72, "duration": 4.38}, {"text": "дом с нормальностью с нормальным", "start": 628.74, "duration": 4.14}, {"text": "соответственно в каждом помещении при", "start": 695.94, "duration": 4.139}, {"text": "в помещении индивидуально на каждом", "start": 701.88, "duration": 4.44}, {"text": "по всему дому Ну редко кто так", "start": 717.42, "duration": 3.78}, {"text": "дома маленькая то у вас прям там 4", "start": 729.839, "duration": 3.781}, {"text": "электропроводку в доме под такое", "start": 742.8, "duration": 2.82}, {"text": "вашего дома", "start": 770.76, "duration": 4.259}, {"text": "маячат подключения газа к дому то есть", "start": 899.639, "duration": 5.521}, {"text": "мы купили участок построили дом и знаем", "start": 902.16, "duration": 5.46}, {"text": "что у нас газ будет подведен к дому там", "start": 905.16, "duration": 5.34}, {"text": "греем с прицелом на то что мы рядом с", "start": 916.92, "duration": 4.08}, {"text": "домов под ключ включая все инженерные", "start": 977.04, "duration": 4.56}, {"text": "подойдет к вашему дому переходите по", "start": 983.459, "duration": 4.38}, {"text": "газа вы будете окупать на домике 100", "start": 1005.019, "duration": 5.101}, {"text": "сделать дополнительное утепление на доме", "start": 1019.579, "duration": 4.021}]}, {"video": "https://www.youtube.com/watch?v=AiS5wzX1JTA&ab_channel=SKYHOME%D0%A1%D1%82%D1%80%D0%BE%D0%B8%D1%82%D0%B5%D0%BB%D1%8C%D1%81%D1%82%D0%B2%D0%BE%D0%B4%D0%BE%D0%BC%D0%BE%D0%B2", "srt": [{"text": "пользуются каркасные дома поскольку", "start": 5.04, "duration": 4.679}, {"text": "каркасные дома наиболее быстровозводимые", "start": 7.259, "duration": 4.92}, {"text": "каркасного дома и поэтому обязательно", "start": 16.199, "duration": 4.021}, {"text": "дом тоже был тёплый и служил вам многие", "start": 20.22, "duration": 4.74}, {"text": "Первое правило каркасного дома - это", "start": 30.679, "duration": 5.321}, {"text": "каркасные дома в основном строятся из", "start": 79.02, "duration": 3.54}, {"text": "дома для постоянного проживания допустим", "start": 95.88, "duration": 3.9}, {"text": "Если вы хотите строить дачный дом тут", "start": 97.68, "duration": 3.84}, {"text": "Да будет домик потреблять гораздо больше", "start": 103.7, "duration": 5.32}, {"text": "домика даже в 100 мм утепления в", "start": 117.079, "duration": 4.301}, {"text": "когда у вас э устроите дом для", "start": 123.0, "duration": 4.56}, {"text": "значит что вы прямо замёрзните в доме не", "start": 139.62, "duration": 3.54}, {"text": "натопление домика там 100 мм или 150", "start": 154.4, "duration": 5.199}, {"text": "для домиков 150 м² - это спокойно Может", "start": 162.42, "duration": 6.36}, {"text": "разумный предел сравним допустим домик", "start": 178.62, "duration": 4.92}, {"text": "Вот как наш дом 150 э квадратных метров", "start": 180.48, "duration": 5.16}, {"text": "этого дома со 150 на 200 мм мы должны", "start": 195.599, "duration": 5.821}, {"text": "электроэнергии именно отапливаем домик", "start": 206.34, "duration": 5.819}, {"text": "эти 80.000 повешенные на дом", "start": 225.78, "duration": 4.44}, {"text": "при строительстве каркасного дома это", "start": 310.199, "duration": 5.101}, {"text": "каркасные дома утепляются минералы", "start": 317.759, "duration": 3.181}, {"text": "каркасного дома подразумевает утепление", "start": 340.139, "duration": 4.141}, {"text": "дома и этот утеп сверху штукатурить и", "start": 381.12, "duration": 4.62}, {"text": "дома в силу того что в стенах как", "start": 387.539, "duration": 3.78}, {"text": "утепления каркасного дома вообще про все", "start": 407.699, "duration": 4.261}, {"text": "вашего дома всю контактную информацию вы", "start": 571.74, "duration": 3.9}, {"text": "в чём проблема каркасного дома", "start": 585.72, "duration": 4.26}, {"text": "правила на строительство каркасных домов", "start": 623.88, "duration": 4.76}, {"text": "будет Ну будет немножко продуваться дома", "start": 671.1, "duration": 4.38}, {"text": "труху в стене то мне надо дом", "start": 816.959, "duration": 3.0}, {"text": "каркасные дома обеспечить неразрывность", "start": 907.56, "duration": 4.5}, {"text": "вашего дома идём дальше у нас четвёртое", "start": 938.279, "duration": 4.221}, {"text": "конструкции Что такое каркасный дом это", "start": 945.18, "duration": 4.32}, {"text": "каркасном доме они могут занимать", "start": 979.56, "duration": 3.899}, {"text": "в процессе жизни каркасного дома и тут", "start": 994.56, "duration": 4.68}, {"text": "бревенчатый дома и брусовые когда мы", "start": 1101.919, "duration": 4.301}, {"text": "отражать обратно в дом излучаемую часть", "start": 1233.059, "duration": 4.561}, {"text": "энергии Что такое тепло вообще в доме", "start": 1235.88, "duration": 3.72}, {"text": "то насколько тёплый у вас будет дом и то", "start": 1380.9, "duration": 3.899}, {"text": "сэкономить если у вас летний домик", "start": 1402.44, "duration": 3.9}, {"text": "качества у нас дом то есть то Насколько", "start": 1433.4, "duration": 3.3}, {"text": "дома то насколько он приносит радость", "start": 1443.96, "duration": 4.699}, {"text": "захлопывать с размаху Так что весь дом", "start": 1448.659, "duration": 4.0}, {"text": "вы строите дом тот Комфорт который вы", "start": 1463.159, "duration": 4.26}, {"text": "именно вот своё впечатление от дома Вот", "start": 1491.48, "duration": 4.86}, {"text": "строительстве каркасного дома мы", "start": 1496.34, "duration": 2.88}, {"text": "долговечный каркасный дом Если вам", "start": 1501.38, "duration": 3.84}]}, {"video": "https://www.youtube.com/watch?v=u43srY--oNg&t=106s&ab_channel=SKYHOME%D0%A1%D1%82%D1%80%D0%BE%D0%B8%D1%82%D0%B5%D0%BB%D1%8C%D1%81%D1%82%D0%B2%D0%BE%D0%B4%D0%BE%D0%BC%D0%BE%D0%B2", "srt": [{"text": "там нужно последние годы каркасные дома", "start": 52.02, "duration": 4.769}, {"text": "кстати не только каркасные дома но и", "start": 56.789, "duration": 4.2}, {"text": "каркасный дом и допустим каркасные", "start": 94.38, "duration": 4.29}, {"text": "плен тоже допустим к каменному дома не", "start": 111.72, "duration": 4.14}, {"text": "вечером летом за городом и", "start": 272.05, "duration": 5.67}, {"text": "когда мы живем в доме круглогодично у", "start": 312.7, "duration": 4.98}, {"text": "теплого воздуха в доме то есть у вас дом", "start": 434.96, "duration": 3.81}, {"text": "дома как правило поступает в стену в", "start": 599.16, "duration": 3.72}, {"text": "периметр чем-то дома закрыт фундаментом", "start": 728.2, "duration": 4.56}, {"text": "выходить потому что у вас в доме тепло и", "start": 765.16, "duration": 4.59}, {"text": "сквознячок под домом в обязательном", "start": 773.08, "duration": 4.26}, {"text": "нас дом рассчитан как дома не как", "start": 1033.789, "duration": 3.36}, {"text": "у нас дома равномерно весь прогрет то у", "start": 1038.799, "duration": 4.77}, {"text": "вы много внутренних конструкциях дома", "start": 1045.369, "duration": 4.351}, {"text": "двухэтажный дом использовать зимой", "start": 1197.16, "duration": 4.41}, {"text": "спроектированный дом его эксплуатируем", "start": 1296.49, "duration": 4.23}, {"text": "в доме у нас не должно быть в доме на", "start": 1303.09, "duration": 4.559}, {"text": "это неправильно мы либо отапливаем дом", "start": 1307.649, "duration": 4.681}, {"text": "как дачные дома в межсезонье и", "start": 1312.33, "duration": 3.51}, {"text": "нормальном доме условия для", "start": 1314.279, "duration": 3.63}, {"text": "обычных каркасных домах они но", "start": 1375.509, "duration": 3.601}, {"text": "рядом там может происходить деградация", "start": 1565.909, "duration": 4.291}, {"text": "слоев не то что не должно быть в доме", "start": 1637.58, "duration": 3.27}, {"text": "по бюджету в доме каркасно пленок много", "start": 1658.64, "duration": 4.74}, {"text": "бюджетным там слом were 20000 на дома", "start": 1668.12, "duration": 3.99}, {"text": "дома ну ка бы в максимуме на лет", "start": 1703.94, "duration": 2.67}, {"text": "мы строим дешевый дачный домик пусть и", "start": 1762.5, "duration": 5.07}, {"text": "службы этом если вы хотите построить дом", "start": 1777.68, "duration": 3.72}]}]}